TimeStamp,EyeTime,RawX,RawY,Left_RawX,Left_RawY,Left_PupilSize,Left_PupilCenterX,Left_PupilCenterY,Left_PupilCenterZ,Right_RawX,Right_RawY,Right_PupilSize,Right_PupilCenterX,Right_PupilCenterY,Right_PupilCenterZ,Note,
1520430425.9854581,20180307144705985458,862,221,0,0,0,0,0,0,0,0,0,0,0,0,Pre Baseline,
1520430426.0184603,20180307144706018460,848,255,0,0,0,0,0,0,0,0,0,0,0,0,Pre Baseline,
1520430426.051462,20180307144706051462,773,359,0,0,0,0,0,0,0,0,0,0,0,0,Pre Baseline,
1520430426.086464,20180307144706086464,671,434,0,0,0,0,0,0,0,0,0,0,0,0,Pre Baseline,
1520430426.1214662,20180307144706121466,584,453,0,0,0,0,0,0,0,0,0,0,0,0,Pre Baseline,
1520430426.156468,20180307144706156468,541,439,0,0,0,0,0,0,0,0,0,0,0,0,Pre Baseline,
1520430426.1934702,20180307144706193470,521,409,0,0,0,0,0,0,0,0,0,0,0,0,Pre Baseline,
1520430426.2284722,20180307144706228472,534,355,0,0,0,0,0,0,0,0,0,0,0,0,Pre Baseline,
1520430426.262474,20180307144706262474,574,304,0,0,0,0,0,0,0,0,0,0,0,0,Pre Baseline,
1520430426.2964761,20180307144706296476,637,270,0,0,0,0,0,0,0,0,0,0,0,0,Pre Baseline,
1520430426.3304782,20180307144706330478,700,263,0,0,0,0,0,0,0,0,0,0,0,0,Pre Baseline,
1520430426.36648,20180307144706366480,762,296,0,0,0,0,0,0,0,0,0,0,0,0,Pre Baseline,
1520430426.400482,20180307144706400482,798,354,0,0,0,0,0,0,0,0,0,0,0,0,Pre Baseline,
1520430426.434484,20180307144706434483,783,390,0,0,0,0,0,0,0,0,0,0,0,0,Pre Baseline,
1520430426.4674857,20180307144706467485,742,415,0,0,0,0,0,0,0,0,0,0,0,0,Pre Baseline,
1520430426.505488,20180307144706504487,675,422,0,0,0,0,0,0,0,0,0,0,0,0,Pre Baseline,
1520430426.54049,20180307144706540490,611,422,0,0,0,0,0,0,0,0,0,0,0,0,Pre Baseline,
1520430426.573492,20180307144706573491,566,413,0,0,0,0,0,0,0,0,0,0,0,0,Pre Baseline,
1520430426.6064937,20180307144706606493,541,394,0,0,0,0,0,0,0,0,0,0,0,0,Pre Baseline,
1520430426.6404955,20180307144706640495,532,329,0,0,0,0,0,0,0,0,0,0,0,0,Pre Baseline,
1520430426.6744978,20180307144706674497,556,296,0,0,0,0,0,0,0,0,0,0,0,0,Pre Baseline,
1520430426.7084997,20180307144706708499,609,282,0,0,0,0,0,0,0,0,0,0,0,0,Pre Baseline,
1520430426.7455018,20180307144706745501,726,296,0,0,0,0,0,0,0,0,0,0,0,0,Pre Baseline,
1520430426.7795036,20180307144706779503,804,339,0,0,0,0,0,0,0,0,0,0,0,0,Pre Baseline,
1520430426.8135056,20180307144706813505,832,371,0,0,0,0,0,0,0,0,0,0,0,0,Pre Baseline,
1520430426.8475077,20180307144706847507,833,379,0,0,0,0,0,0,0,0,0,0,0,0,Pre Baseline,
1520430426.8815093,20180307144706881509,828,383,0,0,0,0,0,0,0,0,0,0,0,0,Pre Baseline,
1520430426.9155116,20180307144706915511,824,384,0,0,0,0,0,0,0,0,0,0,0,0,Pre Baseline,
1520430426.9485133,20180307144706948513,822,384,0,0,0,0,0,0,0,0,0,0,0,0,Pre Baseline,
1520430426.982515,20180307144706982515,821,384,0,0,0,0,0,0,0,0,0,0,0,0,Pre Baseline,
1520430427.0205173,20180307144707020517,820,383,0,0,0,0,0,0,0,0,0,0,0,0,Pre Baseline,
1520430427.0625198,20180307144707062519,820,381,0,0,0,0,0,0,0,0,0,0,0,0,Pre Baseline,
1520430427.0965216,20180307144707096521,820,381,0,0,0,0,0,0,0,0,0,0,0,0,Pre Baseline,
1520430427.1295238,20180307144707129523,820,381,0,0,0,0,0,0,0,0,0,0,0,0,Pre Baseline,
1520430427.1645257,20180307144707164525,820,381,0,0,0,0,0,0,0,0,0,0,0,0,Pre Baseline,
1520430427.2015278,20180307144707200527,820,381,0,0,0,0,0,0,0,0,0,0,0,0,Pre Baseline,
1520430427.2355297,20180307144707235529,820,381,0,0,0,0,0,0,0,0,0,0,0,0,Pre Baseline,
1520430427.2685318,20180307144707268531,820,381,0,0,0,0,0,0,0,0,0,0,0,0,Pre Baseline,
1520430427.3015335,20180307144707301533,820,381,0,0,0,0,0,0,0,0,0,0,0,0,Pre Baseline,
1520430427.3345354,20180307144707334535,820,381,0,0,0,0,0,0,0,0,0,0,0,0,Pre Baseline,
1520430427.3675375,20180307144707367537,820,381,0,0,0,0,0,0,0,0,0,0,0,0,Pre Baseline,
1520430427.4005392,20180307144707400539,820,381,0,0,0,0,0,0,0,0,0,0,0,0,Pre Baseline,
1520430427.433541,20180307144707433541,820,380,0,0,0,0,0,0,0,0,0,0,0,0,Pre Baseline,
1520430427.4665432,20180307144707466543,820,380,0,0,0,0,0,0,0,0,0,0,0,0,Pre Baseline,
1520430427.503545,20180307144707503545,820,380,0,0,0,0,0,0,0,0,0,0,0,0,Pre Baseline,
1520430427.59055,20180307144707590550,820,380,0,0,0,0,0,0,0,0,0,0,0,0,Pre Baseline,
1520430427.624552,20180307144707624552,820,380,0,0,0,0,0,0,0,0,0,0,0,0,Pre Baseline,
1520430427.659554,20180307144707659554,820,380,0,0,0,0,0,0,0,0,0,0,0,0,Pre Baseline,
1520430427.6925557,20180307144707692555,820,380,0,0,0,0,0,0,0,0,0,0,0,0,Pre Baseline,
1520430427.7265577,20180307144707726557,820,380,0,0,0,0,0,0,0,0,0,0,0,0,Pre Baseline,
1520430427.7595596,20180307144707759559,820,380,0,0,0,0,0,0,0,0,0,0,0,0,Pre Baseline,
1520430427.7925618,20180307144707792561,820,380,0,0,0,0,0,0,0,0,0,0,0,0,Pre Baseline,
1520430427.8255634,20180307144707825563,820,380,0,0,0,0,0,0,0,0,0,0,0,0,Pre Baseline,
1520430427.8595655,20180307144707859565,820,380,0,0,0,0,0,0,0,0,0,0,0,0,Pre Baseline,
1520430427.8935676,20180307144707893567,820,380,0,0,0,0,0,0,0,0,0,0,0,0,Pre Baseline,
1520430427.9265692,20180307144707926569,820,380,0,0,0,0,0,0,0,0,0,0,0,0,Pre Baseline,
1520430427.9595711,20180307144707959571,820,380,0,0,0,0,0,0,0,0,0,0,0,0,Pre Baseline,
1520430427.9925733,20180307144707992573,820,380,0,0,0,0,0,0,0,0,0,0,0,0,Brightness Change,
1520430428.0355756,20180307144708035575,820,380,0,0,0,0,0,0,0,0,0,0,0,0,Brightness Change,
1520430428.0725775,20180307144708072577,820,380,0,0,0,0,0,0,0,0,0,0,0,0,Brightness Change,
1520430428.1065798,20180307144708106579,820,380,0,0,0,0,0,0,0,0,0,0,0,0,Brightness Change,
1520430428.1395814,20180307144708139581,820,380,0,0,0,0,0,0,0,0,0,0,0,0,Brightness Change,
1520430428.1735833,20180307144708173583,820,380,0,0,0,0,0,0,0,0,0,0,0,0,Brightness Change,
1520430428.2095854,20180307144708209585,820,380,0,0,0,0,0,0,0,0,0,0,0,0,Brightness Change,
1520430428.2435873,20180307144708243587,820,380,0,0,0,0,0,0,0,0,0,0,0,0,Brightness Change,
1520430428.2765894,20180307144708276589,820,380,0,0,0,0,0,0,0,0,0,0,0,0,Brightness Change,
1520430428.3105912,20180307144708310591,820,380,0,0,0,0,0,0,0,0,0,0,0,0,Brightness Change,
1520430428.3435931,20180307144708343593,820,380,0,0,0,0,0,0,0,0,0,0,0,0,Brightness Change,
1520430428.376595,20180307144708376595,820,380,0,0,0,0,0,0,0,0,0,0,0,0,Brightness Change,
1520430428.409597,20180307144708409596,820,380,0,0,0,0,0,0,0,0,0,0,0,0,Brightness Change,
1520430428.4425988,20180307144708442598,820,380,0,0,0,0,0,0,0,0,0,0,0,0,Brightness Change,
1520430428.4756007,20180307144708475600,820,380,0,0,0,0,0,0,0,0,0,0,0,0,Brightness Change,
1520430428.5086026,20180307144708508602,820,380,0,0,0,0,0,0,0,0,0,0,0,0,Brightness Change,
1520430428.5416045,20180307144708541604,820,380,0,0,0,0,0,0,0,0,0,0,0,0,Brightness Change,
1520430428.5766065,20180307144708576606,820,380,0,0,0,0,0,0,0,0,0,0,0,0,Brightness Change,
1520430428.6126084,20180307144708612608,820,380,0,0,0,0,0,0,0,0,0,0,0,0,Brightness Change,
1520430428.6456106,20180307144708645610,820,380,0,0,0,0,0,0,0,0,0,0,0,0,Brightness Change,
1520430428.6786122,20180307144708678612,820,380,0,0,0,0,0,0,0,0,0,0,0,0,Brightness Change,
1520430428.7116141,20180307144708711614,820,380,0,0,0,0,0,0,0,0,0,0,0,0,Brightness Change,
1520430428.7446163,20180307144708744616,820,380,0,0,0,0,0,0,0,0,0,0,0,0,Brightness Change,
1520430428.780618,20180307144708780618,820,380,0,0,0,0,0,0,0,0,0,0,0,0,Brightness Change,
1520430428.8136199,20180307144708813620,820,380,0,0,0,0,0,0,0,0,0,0,0,0,Brightness Change,
1520430428.847622,20180307144708847622,820,380,0,0,0,0,0,0,0,0,0,0,0,0,Brightness Change,
1520430428.8806238,20180307144708880623,820,380,0,0,0,0,0,0,0,0,0,0,0,0,Brightness Change,
1520430428.9136257,20180307144708913625,820,380,0,0,0,0,0,0,0,0,0,0,0,0,Brightness Change,
1520430428.9466276,20180307144708946627,820,380,0,0,0,0,0,0,0,0,0,0,0,0,Brightness Change,
1520430428.9796295,20180307144708979629,820,380,0,0,0,0,0,0,0,0,0,0,0,0,Brightness Change,
1520430429.0136316,20180307144709013631,820,380,0,0,0,0,0,0,0,0,0,0,0,0,Brightness Change,
1520430429.0466335,20180307144709046633,820,380,0,0,0,0,0,0,0,0,0,0,0,0,Brightness Change,
1520430429.0796351,20180307144709079635,820,380,0,0,0,0,0,0,0,0,0,0,0,0,Brightness Change,
1520430429.1146374,20180307144709114637,820,380,0,0,0,0,0,0,0,0,0,0,0,0,Brightness Change,
1520430429.147639,20180307144709147639,820,380,0,0,0,0,0,0,0,0,0,0,0,0,Brightness Change,
1520430429.1856413,20180307144709185641,820,380,0,0,0,0,0,0,0,0,0,0,0,0,Brightness Change,
1520430429.2216434,20180307144709221643,820,380,0,0,0,0,0,0,0,0,0,0,0,0,Brightness Change,
1520430429.2546453,20180307144709254645,820,380,0,0,0,0,0,0,0,0,0,0,0,0,Brightness Change,
1520430429.287647,20180307144709287647,820,380,0,0,0,0,0,0,0,0,0,0,0,0,Brightness Change,
1520430429.320649,20180307144709320649,820,380,0,0,0,0,0,0,0,0,0,0,0,0,Brightness Change,
1520430429.353651,20180307144709353650,820,380,0,0,0,0,0,0,0,0,0,0,0,0,Brightness Change,
1520430429.3866527,20180307144709386652,821,379,0,0,0,0,0,0,0,0,0,0,0,0,Brightness Change,
1520430429.4256551,20180307144709425655,1067,335,0,0,0,0,0,0,0,0,0,0,0,0,Brightness Change,
1520430429.462657,20180307144709462657,1520,272,0,0,0,0,0,0,0,0,0,0,0,0,Brightness Change,
1520430429.5086596,20180307144709507659,2110,259,0,0,0,0,0,0,0,0,0,0,0,0,Brightness Change,
1520430429.549662,20180307144709549662,2431,297,0,0,0,0,0,0,0,0,0,0,0,0,Brightness Change,
1520430429.5876644,20180307144709587664,2496,311,0,0,0,0,0,0,0,0,0,0,0,0,Brightness Change,
1520430429.6256666,20180307144709625666,2496,311,0,0,0,0,0,0,0,0,0,0,0,0,Brightness Change,
1520430429.6606684,20180307144709660668,2479,311,0,0,0,0,0,0,0,0,0,0,0,0,Brightness Change,
1520430429.6956706,20180307144709695670,2459,315,0,0,0,0,0,0,0,0,0,0,0,0,Brightness Change,
1520430429.7306724,20180307144709730672,2462,332,0,0,0,0,0,0,0,0,0,0,0,0,Brightness Change,
1520430429.7636743,20180307144709763674,2462,332,0,0,0,0,0,0,0,0,0,0,0,0,Brightness Change,
1520430429.7976763,20180307144709797676,2462,332,0,0,0,0,0,0,0,0,0,0,0,0,Brightness Change,
1520430429.8316782,20180307144709831678,2464,336,0,0,0,0,0,0,0,0,0,0,0,0,Brightness Change,
1520430429.8646803,20180307144709864680,2464,338,0,0,0,0,0,0,0,0,0,0,0,0,Brightness Change,
1520430429.9016821,20180307144709901682,2473,339,0,0,0,0,0,0,0,0,0,0,0,0,Brightness Change,
1520430429.9366844,20180307144709936684,2566,339,0,0,0,0,0,0,0,0,0,0,0,0,Brightness Change,
1520430429.9716864,20180307144709971686,2727,320,0,0,0,0,0,0,0,0,0,0,0,0,Brightness Change,
1520430430.0096884,20180307144710009688,2866,291,0,0,0,0,0,0,0,0,0,0,0,0,Brightness Change,
1520430430.0466905,20180307144710046690,2898,277,0,0,0,0,0,0,0,0,0,0,0,0,Brightness Change,
1520430430.0816927,20180307144710081692,2902,271,0,0,0,0,0,0,0,0,0,0,0,0,Brightness Change,
1520430430.1156945,20180307144710115694,2903,269,0,0,0,0,0,0,0,0,0,0,0,0,Brightness Change,
1520430430.1506965,20180307144710150696,2940,259,0,0,0,0,0,0,0,0,0,0,0,0,Brightness Change,
1520430430.1866984,20180307144710186698,3119,215,0,0,0,0,0,0,0,0,0,0,0,0,Brightness Change,
1520430430.2237008,20180307144710223700,3242,181,0,0,0,0,0,0,0,0,0,0,0,0,Brightness Change,
1520430430.2597027,20180307144710259702,3410,157,0,0,0,0,0,0,0,0,0,0,0,0,Brightness Change,
1520430430.2947047,20180307144710294704,3515,140,0,0,0,0,0,0,0,0,0,0,0,0,Brightness Change,
1520430430.3297067,20180307144710329706,3519,127,0,0,0,0,0,0,0,0,0,0,0,0,Brightness Change,
1520430430.3637087,20180307144710363708,3519,125,0,0,0,0,0,0,0,0,0,0,0,0,Brightness Change,
1520430430.3977106,20180307144710397710,3519,120,0,0,0,0,0,0,0,0,0,0,0,0,Brightness Change,
1520430430.4327128,20180307144710432712,3515,110,0,0,0,0,0,0,0,0,0,0,0,0,Brightness Change,
1520430430.4697146,20180307144710469714,3507,96,0,0,0,0,0,0,0,0,0,0,0,0,Brightness Change,
1520430430.5047169,20180307144710504716,3499,84,0,0,0,0,0,0,0,0,0,0,0,0,Post Baseline,
1520430430.5407188,20180307144710540718,3494,80,0,0,0,0,0,0,0,0,0,0,0,0,Post Baseline,
1520430430.5757208,20180307144710575720,3491,79,0,0,0,0,0,0,0,0,0,0,0,0,Post Baseline,
1520430430.611723,20180307144710611722,3491,78,0,0,0,0,0,0,0,0,0,0,0,0,Post Baseline,
1520430430.648725,20180307144710648725,3491,78,0,0,0,0,0,0,0,0,0,0,0,0,Post Baseline,
1520430430.681727,20180307144710681726,3490,77,0,0,0,0,0,0,0,0,0,0,0,0,Post Baseline,
1520430430.715729,20180307144710715728,3486,70,0,0,0,0,0,0,0,0,0,0,0,0,Post Baseline,
1520430430.7507308,20180307144710750730,3483,65,0,0,0,0,0,0,0,0,0,0,0,0,Post Baseline,
1520430430.7857327,20180307144710785732,3483,64,0,0,0,0,0,0,0,0,0,0,0,0,Post Baseline,
1520430430.8207347,20180307144710820734,3483,64,0,0,0,0,0,0,0,0,0,0,0,0,Post Baseline,
1520430430.8567371,20180307144710856736,3483,64,0,0,0,0,0,0,0,0,0,0,0,0,Post Baseline,
1520430430.895739,20180307144710895739,3483,64,0,0,0,0,0,0,0,0,0,0,0,0,Post Baseline,
1520430430.9297411,20180307144710929741,3483,64,0,0,0,0,0,0,0,0,0,0,0,0,Post Baseline,
1520430430.963743,20180307144710963743,3483,64,0,0,0,0,0,0,0,0,0,0,0,0,Post Baseline,
1520430430.9997451,20180307144710999745,3483,64,0,0,0,0,0,