{"self.FindMeFile": "FeatureVectorSavingDirectory",
  "MatrixToUpdate": "CompleteCaliFeatureMatrix",
  "PinMatrixToUpdate": "Pin_Pre_Processing_Matrix",
  "root_path": "D:/code_project/",
  "self.moudle": "CALI+PIN",
  "TargetFeatureVectore": 5,
  "TimeToWorkInMin": 5,
  "TimeThreshold": 0.9,
  "ScreenThreshold": 0.2,
  "NumberOfTries": 3,
  "ValTimeUntilQuit": 2,
  "threshold": 0,
  "self.DiagonalInInch": 15.6,
  "self.revision": 2.1,
  "self.rollwindowlength": 0.1,
  "self.CleanThreshold": 0.7,
  "AucThreshold": 0.89,
  "self.DetectionAngle1": 30,
  "self.DetectionAngle2": 60,
  "self.DetectGaze": 10,
  "self.password": 12345,
  "self.targetSpeed": 500,
  "self.window_size": 10,
  "self.trackerFrameRate": 60,
  "calibration": {
    "SampleTimeDict" : {
      "White Screen": 2,
      "Pre Baseline": 2,
      "Brightness Change": 2.5,
      "Post Baseline": 0.5
    }
  },
  "gp3": {
    "timeout": 8
  }
}